<?xml version="1.0" encoding="UTF-8" standalone="no"?>
<svg xmlns:dc="http://purl.org/dc/elements/1.1/" 
	xmlns:cc="http://creativecommons.org/ns#" 
	xmlns:rdf="http://www.w3.org/1999/02/22-rdf-syntax-ns#" 
	xmlns:svg="http://www.w3.org/2000/svg" 
	xmlns="http://www.w3.org/2000/svg" 
	xmlns:xlink="http://www.w3.org/1999/xlink" 
	xmlns:sodipodi="http://sodipodi.sourceforge.net/DTD/sodipodi-0.dtd" 
	xmlns:inkscape="http://www.inkscape.org/namespaces/inkscape" version="1.1" id="Layer_1" x="0px" y="0px" viewBox="0 0 1638.3 458.2" style="enable-background:new 0 0 1638.3 458.2;" xml:space="preserve" inkscape:version="0.91 r13725" sodipodi:docname="error-404-v2.svg">
	<metadata id="metadata5720">
		<rdf:RDF>
			<cc:Work rdf:about="">
				<dc:format>image/svg+xml</dc:format>
				<dc:type rdf:resource="http://purl.org/dc/dcmitype/StillImage" />
				<dc:title></dc:title>
			</cc:Work>
		</rdf:RDF>
	</metadata>
	<defs id="defs5718" />
	<sodipodi:namedview pagecolor="#ffffff" bordercolor="#666666" borderopacity="1" objecttolerance="10" gridtolerance="10" guidetolerance="10" inkscape:pageopacity="0" inkscape:pageshadow="2" inkscape:window-width="1280" inkscape:window-height="963" id="namedview5716" showgrid="false" inkscape:zoom="0.34960415" inkscape:cx="819.15002" inkscape:cy="229.10001" inkscape:window-x="-9" inkscape:window-y="-9" inkscape:window-maximized="1" inkscape:current-layer="Layer_1" />
	<style type="text/css" id="style4692">
  svg * {transform-box: fill-box;}
  @keyframes arm {

	45% {
		-webkit-transform: rotateX(0deg) rotateY(0deg);
		transform: rotateX(0deg) rotateY(0deg);
	 }

	50% {
		-webkit-transform: translateX(0px) rotate(90deg);
		transform: translateX(0px) rotate(90deg);
	 }
	 60% {
		-webkit-transform: translateX(0px) rotate(90deg);
		transform: translateX(0px) rotate(90deg);
	 }

	65% {
		-webkit-transform: rotateX(0deg) rotateY(0deg);
		transform: rotateX(0deg) rotateY(0deg);
	 }

  }

  @keyframes mouth {

	45% {
		-webkit-transform: rotateX(0deg) rotateY(0deg);
		transform: rotateX(0deg) rotateY(0deg);
	 }

	50% {
		-webkit-transform: translateX(0px) rotate(8deg);
		transform: translateX(0px) rotate(8deg);
	 }
	 60% {
		-webkit-transform: translateX(0px) rotate(8deg);
		transform: translateX(0px) rotate(8deg);
	 }

	65% {
		-webkit-transform: rotateX(0deg) rotateY(0deg);
		transform: rotateX(0deg) rotateY(0deg);
	 }

  }
  #arm {
	 -webkit-animation-name: arm;
	 animation-name: arm;
	 -webkit-transform-origin: bottom left;
	 transform-origin: bottom left;
	 -webkit-animation-duration: 15s;
	 animation-duration: 15s;
	 -webkit-animation-fill-mode: both;
	 animation-fill-mode: both;
	 -webkit-animation-iteration-count: infinite;
	 animation-iteration-count: infinite;
  }

  #mouth	{
	 -webkit-animation-name: mouth;
	 animation-name: mouth;
	 -webkit-transform-origin: bottom left;
	 transform-origin: bottom left;
	 -webkit-animation-duration: 15s;
	 animation-duration: 15s;
	 -webkit-animation-fill-mode: both;
	 animation-fill-mode: both;
	 -webkit-animation-iteration-count: infinite;
	 animation-iteration-count: infinite;
  }

	.st0{fill:#FFFFFF;}
	.st1{fill:#CAE3F5;}
	.st2{fill:#B4D9F0;}
	.st3{fill:#C2DDF6;}
	.st4{fill:#A9D1F0;}
	.st5{fill:#C2DFF2;}
	.st6{fill:#2A75BB;}
	.st7{fill:#F7FAFD;}
	.st8{fill:#DFEDF7;}
	.st9{fill:#D0E9F4;}
	.st10{fill:#162B48;}
	.st11{fill:#F7913B;}
	.st12{opacity:0.25;}
	.st13{fill:#B8DFF6;}
	.st14{fill:#F48323;}
	.st15{fill:#2795C1;}
	.st16{fill:#208FCE;}
	.st17{clip-path:url(#SVGID_2_);fill:#ABC8E8;}
	.st18{clip-path:url(#SVGID_4_);fill:#ABC8E8;}
	.st19{fill:#F48120;}
	.st20{fill:#82B1DE;}
	.st21{fill:#66A2D7;}
	.st22{fill:#97BDE4;}
	.st23{fill:#5D9FD6;}
	.st24{clip-path:url(#SVGID_6_);fill:#5D9FD6;}
	.st25{clip-path:url(#SVGID_8_);fill:#FFFFFF;}
	.st26{clip-path:url(#SVGID_10_);fill:#FFFFFF;}
	</style>

	<g id="g4732">
		<rect x="983.6" y="55.4" class="st1" width="327.9" height="402.5" id="rect4734" />
		<rect x="1002.8" y="72.5" class="st2" width="289.4" height="368.1" id="rect4736" />
		<rect x="1002.8" y="151.7" class="st1" width="289.4" height="17.2" id="rect4738" />
		<rect x="1002.8" y="248" class="st1" width="289.4" height="17.2" id="rect4740" />
		<rect x="1002.8" y="344.3" class="st1" width="289.4" height="17.2" id="rect4742" />
		<rect x="1030.1" y="86.9" class="st1" width="17.8" height="64.8" id="rect4744" />
		<rect x="1152.2" y="86.9" class="st1" width="17.8" height="64.8" id="rect4746" />
		<rect x="1087.4" y="86.9" class="st1" width="17.8" height="64.8" id="rect4748" />
		<rect x="1214.3" y="86.9" class="st1" width="17.8" height="64.8" id="rect4750" />
		<rect x="1060.4" y="93.5" class="st1" width="12.4" height="57.2" id="rect4752" />
		<rect x="1242.1" y="182.6" class="st1" width="12.4" height="64.3" id="rect4754" />
		<rect x="1252.6" y="272.5" class="st1" width="12.4" height="71.6" id="rect4756" />
		<rect x="1248.3" y="86.9" class="st1" width="17.8" height="64.8" id="rect4758" />
		<rect x="1166.3" y="182.6" class="st1" width="17.8" height="64.8" id="rect4760" />
		<rect x="1234.8" y="97.8" class="st3" width="13" height="53.9" id="rect4762" />
		<rect x="1225.6" y="194.1" class="st3" width="13" height="53.9" id="rect4764" />
		<rect x="1120.7" y="97.8" class="st3" width="14.8" height="53.9" id="rect4766" />
		<rect x="1137.5" y="97.8" class="st3" width="13" height="53.9" id="rect4768" />
		<rect x="1098.7" y="193.5" class="st3" width="13" height="53.9" id="rect4770" />
		<rect x="1010" y="93.5" class="st3" width="18" height="58.2" id="rect4772" />
		<rect x="1196.8" y="97.8" class="st4" width="16.2" height="53.9" id="rect4774" />
		<polygon class="st4" points="1282.6,151.7 1266.6,149.5 1276.1,96.2 1292.1,98.4  " id="polygon4776" />
		<polygon class="st4" points="1012.3,344.3 1028.3,342.1 1018.7,288.9 1002.8,291.1  " id="polygon4778" />
		<rect x="1171.2" y="81.5" class="st4" width="8.1" height="70.3" id="rect4780" />
		<rect x="1108.7" y="86.9" class="st4" width="8.1" height="64.8" id="rect4782" />
		<rect x="1133.5" y="183.2" class="st4" width="8.1" height="64.8" id="rect4784" />
		<rect x="1075.1" y="80.6" class="st4" width="10" height="71.1" id="rect4786" />
		<rect x="1050.4" y="176.3" class="st4" width="10" height="71.1" id="rect4788" />
		<rect x="1047.9" y="84.9" class="st4" width="11" height="66.8" id="rect4790" />
		<rect x="1179.3" y="93.5" class="st5" width="16.2" height="58.2" id="rect4792" />
		<rect x="1147.5" y="189.2" class="st5" width="16.2" height="58.2" id="rect4794" />
		<polygon class="st5" points="1282.3,344.3 1266.3,342.2 1276,284.6 1292,286.7  " id="polygon4796" />
		<rect x="1032.8" y="279.5" class="st4" width="8.1" height="64.8" id="rect4798" />
		<rect x="1046.8" y="286.1" class="st5" width="16.2" height="58.2" id="rect4800" />
		<rect x="1062.2" y="382.5" class="st5" width="16.2" height="58.2" id="rect4802" />
		<rect x="1062.2" y="193.5" class="st3" width="13" height="53.9" id="rect4804" />
		<rect x="1024.2" y="193.5" class="st4" width="16.2" height="53.9" id="rect4806" />
		<rect x="1006.6" y="189.2" class="st5" width="16.2" height="58.2" id="rect4808" />
		<rect x="1262.4" y="182.7" class="st1" width="17.8" height="64.8" id="rect4810" />
		<rect x="1205.2" y="182.7" class="st1" width="17.8" height="64.8" id="rect4812" />
		<rect x="1027.7" y="382.6" class="st5" width="9.4" height="58.2" id="rect4814" />
		<rect x="1037.6" y="376" class="st1" width="17.8" height="64.8" id="rect4816" />
		<rect x="1078.2" y="182.7" class="st1" width="17.8" height="64.8" id="rect4818" />
		<rect x="1182.5" y="279.5" class="st1" width="17.8" height="64.8" id="rect4820" />
		<rect x="1017.2" y="368.5" class="st5" width="8.9" height="72.3" id="rect4822" />
		<rect x="1078.3" y="290.4" class="st3" width="13" height="53.9" id="rect4824" />
		<rect x="1094.4" y="279.6" class="st1" width="17.8" height="64.8" id="rect4826" />
		<rect x="1193.6" y="182.7" class="st4" width="8.1" height="64.8" id="rect4828" />
		<rect x="1237.3" y="290.2" class="st3" width="13" height="53.9" id="rect4830" />
		<rect x="1205.3" y="278.8" class="st4" width="8.1" height="64.8" id="rect4832" />
		<rect x="1219.1" y="278.8" class="st4" width="13" height="64.8" id="rect4834" />
		<rect x="1080.6" y="375.4" class="st4" width="13" height="64.8" id="rect4836" />
		<rect x="1115" y="189.3" class="st5" width="16.2" height="58.2" id="rect4838" />
		<rect x="1135.7" y="272.5" class="st4" width="8.1" height="71.8" id="rect4840" />
		<rect x="1177.9" y="368.8" class="st4" width="8.1" height="71.8" id="rect4842" />
		<rect x="1193.5" y="373.4" class="st4" width="8.1" height="67.2" id="rect4844" />
		<rect x="1149.7" y="279.2" class="st5" width="16.2" height="64.5" id="rect4846" />
		<rect x="1221.5" y="375.7" class="st4" width="8.1" height="64.8" id="rect4848" />
		<rect x="1157.8" y="376.2" class="st5" width="16.2" height="64.5" id="rect4850" />
		<rect x="1234.8" y="375.9" class="st1" width="17.8" height="64.8" id="rect4852" />
		<polygon class="st4" points="1276.6,439.9 1284.6,440.7 1292.2,376.2 1284.2,375.5  " id="polygon4854" />
		<polygon class="st5" points="1270.8,440.8 1254.9,438.3 1268,374.8 1283.9,377.3  " id="polygon4856" />
		<rect x="1117.2" y="279.2" class="st5" width="16.2" height="64.5" id="rect4858" />
		<rect x="1095.5" y="386.8" class="st3" width="13" height="53.9" id="rect4860" />
		<rect x="1111.6" y="375.9" class="st1" width="17.8" height="64.8" id="rect4862" />
		<rect x="1134.4" y="375.6" class="st5" width="16.2" height="64.5" id="rect4864" />
		<rect x="1203.5" y="375.6" class="st5" width="16.2" height="64.5" id="rect4866" />
	</g>
	<g id="g4868">
		<rect x="1310.4" y="55.4" class="st1" width="327.9" height="402.5" id="rect4870" />
		<rect x="1329.7" y="72.5" class="st2" width="289.4" height="368.1" id="rect4872" />
		<rect x="1329.7" y="151.7" class="st1" width="289.4" height="17.2" id="rect4874" />
		<rect x="1329.7" y="248" class="st1" width="289.4" height="17.2" id="rect4876" />
		<rect x="1329.7" y="344.4" class="st1" width="289.4" height="17.2" id="rect4878" />
		<rect x="1357" y="86.9" class="st1" width="17.8" height="64.8" id="rect4880" />
		<rect x="1479.1" y="86.9" class="st1" width="17.8" height="64.8" id="rect4882" />
		<rect x="1414.3" y="86.9" class="st1" width="17.8" height="64.8" id="rect4884" />
		<rect x="1541.2" y="86.9" class="st1" width="17.8" height="64.8" id="rect4886" />
		<rect x="1387.3" y="93.5" class="st1" width="12.4" height="57.2" id="rect4888" />
		<rect x="1569" y="182.6" class="st1" width="12.4" height="64.3" id="rect4890" />
		<rect x="1579.5" y="272.5" class="st1" width="12.4" height="71.6" id="rect4892" />
		<rect x="1575.2" y="86.9" class="st1" width="17.8" height="64.8" id="rect4894" />
		<rect x="1493.2" y="182.6" class="st1" width="17.8" height="64.8" id="rect4896" />
		<rect x="1561.7" y="97.8" class="st3" width="13" height="53.9" id="rect4898" />
		<rect x="1552.5" y="194.1" class="st3" width="13" height="53.9" id="rect4900" />
		<rect x="1447.6" y="97.8" class="st3" width="14.8" height="53.9" id="rect4902" />
		<rect x="1464.4" y="97.8" class="st3" width="13" height="53.9" id="rect4904" />
		<rect x="1425.5" y="193.5" class="st3" width="13" height="53.9" id="rect4906" />
		<rect x="1336.9" y="93.5" class="st3" width="18" height="58.2" id="rect4908" />
		<rect x="1523.7" y="97.8" class="st4" width="16.2" height="53.9" id="rect4910" />
		<polygon class="st4" points="1609.5,151.7 1593.5,149.5 1603,96.2 1619,98.4  " id="polygon4912" />
		<polygon class="st4" points="1339.2,344.3 1355.1,342.1 1345.6,288.9 1329.6,291.1  " id="polygon4914" />
		<rect x="1498.1" y="81.5" class="st4" width="8.1" height="70.3" id="rect4916" />
		<rect x="1435.6" y="86.9" class="st4" width="8.1" height="64.8" id="rect4918" />
		<rect x="1460.4" y="183.2" class="st4" width="8.1" height="64.8" id="rect4920" />
		<rect x="1402" y="80.6" class="st4" width="10" height="71.1" id="rect4922" />
		<rect x="1377.3" y="176.3" class="st4" width="10" height="71.1" id="rect4924" />
		<rect x="1374.8" y="84.9" class="st4" width="11" height="66.8" id="rect4926" />
		<rect x="1506.1" y="93.5" class="st5" width="16.2" height="58.2" id="rect4928" />
		<rect x="1474.4" y="189.2" class="st5" width="16.2" height="58.2" id="rect4930" />
		<polygon class="st5" points="1609.2,344.3 1593.2,342.2 1602.9,284.6 1618.9,286.7  " id="polygon4932" />
		<rect x="1359.7" y="279.5" class="st4" width="8.1" height="64.8" id="rect4934" />
		<rect x="1373.7" y="286.1" class="st5" width="16.2" height="58.2" id="rect4936" />
		<rect x="1389" y="382.5" class="st5" width="16.2" height="58.2" id="rect4938" />
		<rect x="1389" y="193.5" class="st3" width="13" height="53.9" id="rect4940" />
		<rect x="1351" y="193.5" class="st4" width="16.2" height="53.9" id="rect4942" />
		<rect x="1333.5" y="189.2" class="st5" width="16.2" height="58.2" id="rect4944" />
		<rect x="1589.4" y="182.7" class="st1" width="17.8" height="64.8" id="rect4946" />
		<rect x="1532.1" y="182.7" class="st1" width="17.8" height="64.8" id="rect4948" />
		<rect x="1354.6" y="382.6" class="st5" width="9.4" height="58.2" id="rect4950" />
		<rect x="1364.4" y="376" class="st1" width="17.8" height="64.8" id="rect4952" />
		<rect x="1405.1" y="182.7" class="st1" width="17.8" height="64.8" id="rect4954" />
		<rect x="1509.3" y="279.5" class="st1" width="17.8" height="64.8" id="rect4956" />
		<rect x="1344.1" y="368.5" class="st5" width="8.9" height="72.3" id="rect4958" />
		<rect x="1405.2" y="290.4" class="st3" width="13" height="53.9" id="rect4960" />
		<rect x="1421.3" y="279.6" class="st1" width="17.8" height="64.8" id="rect4962" />
		<rect x="1520.4" y="182.7" class="st4" width="8.1" height="64.8" id="rect4964" />
		<rect x="1564.2" y="290.2" class="st3" width="13" height="53.9" id="rect4966" />
		<rect x="1532.1" y="278.8" class="st4" width="8.1" height="64.8" id="rect4968" />
		<rect x="1546" y="278.8" class="st4" width="13" height="64.8" id="rect4970" />
		<rect x="1407.5" y="375.4" class="st4" width="13" height="64.8" id="rect4972" />
		<rect x="1441.8" y="189.3" class="st5" width="16.2" height="58.2" id="rect4974" />
		<rect x="1462.6" y="272.5" class="st4" width="8.1" height="71.8" id="rect4976" />
		<rect x="1504.8" y="368.8" class="st4" width="8.1" height="71.8" id="rect4978" />
		<rect x="1520.4" y="373.4" class="st4" width="8.1" height="67.2" id="rect4980" />
		<rect x="1476.6" y="279.2" class="st5" width="16.2" height="64.5" id="rect4982" />
		<rect x="1548.5" y="375.7" class="st4" width="8.1" height="64.8" id="rect4984" />
		<rect x="1484.7" y="376.2" class="st5" width="16.2" height="64.5" id="rect4986" />
		<rect x="1561.7" y="375.9" class="st1" width="17.8" height="64.8" id="rect4988" />
		<polygon class="st4" points="1603.4,439.9 1611.5,440.7 1619.1,376.2 1611,375.5  " id="polygon4990" />
		<polygon class="st5" points="1597.7,440.8 1581.8,438.3 1594.9,374.8 1610.8,377.3  " id="polygon4992" />
		<rect x="1444" y="279.2" class="st5" width="16.2" height="64.5" id="rect4994" />
		<rect x="1422.4" y="386.8" class="st3" width="13" height="53.9" id="rect4996" />
		<rect x="1438.5" y="375.9" class="st1" width="17.8" height="64.8" id="rect4998" />
		<rect x="1461.2" y="375.6" class="st5" width="16.2" height="64.5" id="rect5000" />
		<rect x="1530.3" y="375.6" class="st5" width="16.2" height="64.5" id="rect5002" />
	</g>
	<g id="g5004">
		<rect x="327.9" y="55.4" class="st1" width="327.9" height="402.5" id="rect5006" />
		<rect x="347.1" y="72.5" class="st2" width="289.4" height="368.1" id="rect5008" />
		<rect x="347.1" y="151.7" class="st1" width="289.4" height="17.2" id="rect5010" />
		<rect x="347.1" y="248" class="st1" width="289.4" height="17.2" id="rect5012" />
		<rect x="347.1" y="344.4" class="st1" width="289.4" height="17.2" id="rect5014" />
		<rect x="374.4" y="86.9" class="st1" width="17.8" height="64.8" id="rect5016" />
		<rect x="496.5" y="86.9" class="st1" width="17.8" height="64.8" id="rect5018" />
		<rect x="431.7" y="86.9" class="st1" width="17.8" height="64.8" id="rect5020" />
		<rect x="558.6" y="86.9" class="st1" width="17.8" height="64.8" id="rect5022" />
		<rect x="404.7" y="93.5" class="st1" width="12.4" height="57.2" id="rect5024" />
		<rect x="586.4" y="182.6" class="st1" width="12.4" height="64.3" id="rect5026" />
		<rect x="596.9" y="272.5" class="st1" width="12.4" height="71.6" id="rect5028" />
		<rect x="592.6" y="86.9" class="st1" width="17.8" height="64.8" id="rect5030" />
		<rect x="510.6" y="182.6" class="st1" width="17.8" height="64.8" id="rect5032" />
		<rect x="579.1" y="97.8" class="st3" width="13" height="53.9" id="rect5034" />
		<rect x="569.9" y="194.1" class="st3" width="13" height="53.9" id="rect5036" />
		<rect x="465" y="97.8" class="st3" width="14.8" height="53.9" id="rect5038" />
		<rect x="481.8" y="97.8" class="st3" width="13" height="53.9" id="rect5040" />
		<rect x="443" y="193.5" class="st3" width="13" height="53.9" id="rect5042" />
		<rect x="354.3" y="93.5" class="st3" width="18" height="58.2" id="rect5044" />
		<rect x="541.1" y="97.8" class="st4" width="16.2" height="53.9" id="rect5046" />
		<polygon class="st4" points="626.9,151.7 610.9,149.5 620.4,96.2 636.4,98.4  " id="polygon5048" />
		<polygon class="st4" points="356.6,344.3 372.6,342.1 363,288.9 347.1,291.1  " id="polygon5050" />
		<rect x="515.5" y="81.5" class="st4" width="8.1" height="70.3" id="rect5052" />
		<rect x="453" y="86.9" class="st4" width="8.1" height="64.8" id="rect5054" />
		<rect x="477.8" y="183.2" class="st4" width="8.1" height="64.8" id="rect5056" />
		<rect x="419.4" y="80.6" class="st4" width="10" height="71.1" id="rect5058" />
		<rect x="394.7" y="176.3" class="st4" width="10" height="71.1" id="rect5060" />
		<rect x="392.2" y="84.9" class="st4" width="11" height="66.8" id="rect5062" />
		<rect x="523.6" y="93.5" class="st5" width="16.2" height="58.2" id="rect5064" />
		<rect x="491.8" y="189.2" class="st5" width="16.2" height="58.2" id="rect5066" />
		<polygon class="st5" points="626.6,344.3 610.6,342.2 620.3,284.6 636.3,286.7  " id="polygon5068" />
		<rect x="377.1" y="279.5" class="st4" width="8.1" height="64.8" id="rect5070" />
		<rect x="391.1" y="286.1" class="st5" width="16.2" height="58.2" id="rect5072" />
		<rect x="406.5" y="382.5" class="st5" width="16.2" height="58.2" id="rect5074" />
		<rect x="406.5" y="193.5" class="st3" width="13" height="53.9" id="rect5076" />
		<rect x="368.5" y="193.5" class="st4" width="16.2" height="53.9" id="rect5078" />
		<rect x="350.9" y="189.2" class="st5" width="16.2" height="58.2" id="rect5080" />
		<rect x="606.7" y="182.7" class="st1" width="17.8" height="64.8" id="rect5082" />
		<rect x="549.5" y="182.7" class="st1" width="17.8" height="64.8" id="rect5084" />
		<rect x="372" y="382.6" class="st5" width="9.4" height="58.2" id="rect5086" />
		<rect x="381.9" y="376" class="st1" width="17.8" height="64.8" id="rect5088" />
		<rect x="422.5" y="182.7" class="st1" width="17.8" height="64.8" id="rect5090" />
		<rect x="526.8" y="279.5" class="st1" width="17.8" height="64.8" id="rect5092" />
		<rect x="361.5" y="368.5" class="st5" width="8.9" height="72.3" id="rect5094" />
		<rect x="422.6" y="290.4" class="st3" width="13" height="53.9" id="rect5096" />
		<rect x="438.7" y="279.6" class="st1" width="17.8" height="64.8" id="rect5098" />
		<rect x="537.9" y="182.7" class="st4" width="8.1" height="64.8" id="rect5100" />
		<rect x="581.6" y="290.2" class="st3" width="13" height="53.9" id="rect5102" />
		<rect x="549.5" y="278.8" class="st4" width="8.1" height="64.8" id="rect5104" />
		<rect x="563.4" y="278.8" class="st4" width="13" height="64.8" id="rect5106" />
		<rect x="424.9" y="375.4" class="st4" width="13" height="64.8" id="rect5108" />
		<rect x="459.3" y="189.3" class="st5" width="16.2" height="58.2" id="rect5110" />
		<rect x="480" y="272.5" class="st4" width="8.1" height="71.8" id="rect5112" />
		<rect x="522.2" y="368.8" class="st4" width="8.1" height="71.8" id="rect5114" />
		<rect x="537.8" y="373.4" class="st4" width="8.1" height="67.2" id="rect5116" />
		<rect x="494" y="279.2" class="st5" width="16.2" height="64.5" id="rect5118" />
		<rect x="565.8" y="375.7" class="st4" width="8.1" height="64.8" id="rect5120" />
		<rect x="502.1" y="376.2" class="st5" width="16.2" height="64.5" id="rect5122" />
		<rect x="579.1" y="375.9" class="st1" width="17.8" height="64.8" id="rect5124" />
		<polygon class="st4" points="620.9,439.9 628.9,440.7 636.5,376.2 628.5,375.5  " id="polygon5126" />
		<polygon class="st5" points="615.1,440.8 599.2,438.3 612.3,374.8 628.2,377.3  " id="polygon5128" />
		<rect x="461.5" y="279.2" class="st5" width="16.2" height="64.5" id="rect5130" />
		<rect x="439.8" y="386.8" class="st3" width="13" height="53.9" id="rect5132" />
		<rect x="455.9" y="375.9" class="st1" width="17.8" height="64.8" id="rect5134" />
		<rect x="478.7" y="375.6" class="st5" width="16.2" height="64.5" id="rect5136" />
		<rect x="547.7" y="375.6" class="st5" width="16.2" height="64.5" id="rect5138" />
	</g>
	<g id="g5140">
		<rect y="55.4" class="st1" width="327.9" height="402.5" id="rect5142" />
		<rect x="19.2" y="72.6" class="st2" width="289.4" height="368.1" id="rect5144" />
		<rect x="19.2" y="151.7" class="st1" width="289.4" height="17.2" id="rect5146" />
		<rect x="19.2" y="248" class="st1" width="289.4" height="17.2" id="rect5148" />
		<rect x="19.3" y="344.3" class="st1" width="289.4" height="17.2" id="rect5150" />
		<rect x="46.6" y="86.9" class="st1" width="17.8" height="64.8" id="rect5152" />
		<rect x="168.6" y="86.9" class="st1" width="17.8" height="64.8" id="rect5154" />
		<rect x="103.8" y="86.9" class="st1" width="17.8" height="64.8" id="rect5156" />
		<rect x="230.8" y="86.9" class="st1" width="17.8" height="64.8" id="rect5158" />
		<rect x="76.9" y="93.5" class="st1" width="12.4" height="57.2" id="rect5160" />
		<rect x="258.5" y="182.6" class="st1" width="12.4" height="64.3" id="rect5162" />
		<rect x="269.1" y="272.5" class="st1" width="12.4" height="71.6" id="rect5164" />
		<rect x="264.7" y="86.9" class="st1" width="17.8" height="64.8" id="rect5166" />
		<rect x="182.8" y="182.6" class="st1" width="17.8" height="64.8" id="rect5168" />
		<rect x="251.2" y="97.8" class="st3" width="13" height="53.9" id="rect5170" />
		<rect x="242" y="194.1" class="st3" width="13" height="53.9" id="rect5172" />
		<rect x="137.1" y="97.8" class="st3" width="14.8" height="53.9" id="rect5174" />
		<rect x="154" y="97.8" class="st3" width="13" height="53.9" id="rect5176" />
		<rect x="115.1" y="193.5" class="st3" width="13" height="53.9" id="rect5178" />
		<rect x="26.4" y="93.5" class="st3" width="18" height="58.2" id="rect5180" />
		<rect x="213.2" y="97.8" class="st4" width="16.2" height="53.9" id="rect5182" />
		<polygon class="st4" points="299,151.7 283.1,149.5 292.6,96.2 308.5,98.4  " id="polygon5184" />
		<polygon class="st4" points="28.7,344.3 44.7,342.1 35.2,288.9 19.2,291.1  " id="polygon5186" />
		<rect x="187.6" y="81.5" class="st4" width="8.1" height="70.3" id="rect5188" />
		<rect x="125.2" y="86.9" class="st4" width="8.1" height="64.8" id="rect5190" />
		<rect x="149.9" y="183.2" class="st4" width="8.1" height="64.8" id="rect5192" />
		<rect x="91.6" y="80.6" class="st4" width="10" height="71.1" id="rect5194" />
		<rect x="66.9" y="176.3" class="st4" width="10" height="71.1" id="rect5196" />
		<rect x="64.4" y="84.9" class="st4" width="11" height="66.8" id="rect5198" />
		<rect x="195.7" y="93.5" class="st5" width="16.2" height="58.2" id="rect5200" />
		<rect x="163.9" y="189.2" class="st5" width="16.2" height="58.2" id="rect5202" />
		<polygon class="st5" points="298.8,344.3 282.8,342.2 292.4,284.6 308.4,286.7  " id="polygon5204" />
		<rect x="49.3" y="279.5" class="st4" width="8.1" height="64.8" id="rect5206" />
		<rect x="63.3" y="286.1" class="st5" width="16.2" height="58.2" id="rect5208" />
		<rect x="78.6" y="382.5" class="st5" width="16.2" height="58.2" id="rect5210" />
		<rect x="78.6" y="193.5" class="st3" width="13" height="53.9" id="rect5212" />
		<rect x="40.6" y="193.5" class="st4" width="16.2" height="53.9" id="rect5214" />
		<rect x="23.1" y="189.2" class="st5" width="16.2" height="58.2" id="rect5216" />
		<rect x="278.9" y="182.7" class="st1" width="17.8" height="64.8" id="rect5218" />
		<rect x="221.6" y="182.7" class="st1" width="17.8" height="64.8" id="rect5220" />
		<rect x="44.2" y="382.6" class="st5" width="9.4" height="58.2" id="rect5222" />
		<rect x="54.1" y="376" class="st1" width="17.8" height="64.8" id="rect5224" />
		<rect x="94.7" y="182.7" class="st1" width="17.8" height="64.8" id="rect5226" />
		<rect x="198.9" y="279.5" class="st1" width="17.8" height="64.8" id="rect5228" />
		<rect x="33.6" y="368.5" class="st5" width="8.9" height="72.3" id="rect5230" />
		<rect x="94.7" y="290.4" class="st3" width="13" height="53.9" id="rect5232" />
		<rect x="110.8" y="279.6" class="st1" width="17.8" height="64.8" id="rect5234" />
		<rect x="210" y="182.7" class="st4" width="8.1" height="64.8" id="rect5236" />
		<rect x="253.7" y="290.2" class="st3" width="13" height="53.9" id="rect5238" />
		<rect x="221.6" y="278.8" class="st4" width="8.1" height="64.8" id="rect5240" />
		<rect x="235.5" y="278.8" class="st4" width="13" height="64.8" id="rect5242" />
		<rect x="97.1" y="375.4" class="st4" width="13" height="64.8" id="rect5244" />
		<rect x="131.3" y="189.3" class="st5" width="16.2" height="58.2" id="rect5246" />
		<rect x="152.2" y="272.5" class="st4" width="8.1" height="71.8" id="rect5248" />
		<rect x="194.3" y="368.8" class="st4" width="8.1" height="71.8" id="rect5250" />
		<rect x="210" y="373.4" class="st4" width="8.1" height="67.2" id="rect5252" />
		<rect x="166.2" y="279.2" class="st5" width="16.2" height="64.5" id="rect5254" />
		<rect x="238" y="375.7" class="st4" width="8.1" height="64.8" id="rect5256" />
		<rect x="174.3" y="376.2" class="st5" width="16.2" height="64.5" id="rect5258" />
		<rect x="251.3" y="375.9" class="st1" width="17.8" height="64.8" id="rect5260" />
		<polygon class="st4" points="293,439.9 301,440.7 308.6,376.2 300.6,375.5  " id="polygon5262" />
		<polygon class="st5" points="287.2,440.8 271.3,438.3 284.5,374.8 300.4,377.3  " id="polygon5264" />
		<rect x="133.7" y="279.2" class="st5" width="16.2" height="64.5" id="rect5266" />
		<rect x="111.9" y="386.8" class="st3" width="13" height="53.9" id="rect5268" />
		<rect x="128" y="375.9" class="st1" width="17.8" height="64.8" id="rect5270" />
		<rect x="150.9" y="375.6" class="st5" width="16.2" height="64.5" id="rect5272" />
		<rect x="219.9" y="375.6" class="st5" width="16.2" height="64.5" id="rect5274" />
	</g>
	<g id="g5276">
		<path class="st6" d="M881.5,446.8c6.2-43.9,15-117.3,15-124.2c0-8.9-7.2-16.1-16.1-16.1c-8.9,0-14.2,7.2-14.2,16.1   c0,6.9,2,79.4,4.3,124.2H881.5z" id="path5278" />
	</g>
	<g id="g5280">
		<path class="st1" d="M848,446.8c-6.2-43.9-15-117.3-15-124.2c0-8.9,7.2-16.1,16.1-16.1c8.9,0,14.2,7.2,14.2,16.1   c0,6.9-2,79.4-4.3,124.2H848z" id="path5282" />
	</g>
	<g id="g5284">
		<path class="st7" d="M819.1,243.6l-0.6,8.3l15.9,0.1l10.3,30.2h20V205C837.3,205,822.9,222.6,819.1,243.6z" id="path5286" />
	</g>
	<g id="g5288">
		<path class="st1" d="M910.4,243.6v60.9c0,8.5-6.9,15.3-15.3,15.3v-81.7L910.4,243.6z" id="path5290" />
	</g>
	<g id="g5292">
		<path class="st8" d="M910.4,243.6l-15.3,8.4l-10.3,30.2h-20V205C892.2,205,906.6,222.6,910.4,243.6z" id="path5294" />
	</g>
	<g id="g5296">
		<path class="st6" d="M883.8,446.8h-13.4v13.4h13.4h13.4C897.2,452.8,891.2,446.8,883.8,446.8z" id="path5298" />
	</g>
	<g id="g5300">
		<path class="st6" d="M845.7,446.8h13.4v13.4h-13.4h-13.4C832.3,452.8,838.3,446.8,845.7,446.8z" id="path5302" />
	</g>
	<g id="g5304">
		<rect x="856.5" y="194.1" class="st9" width="16.5" height="12.4" id="rect5306" />
	</g>
	<g id="g5308">
		<circle class="st6" cx="864.8" cy="161" r="30.9" id="circle5310" />
	</g>
	<g id="g5312">
		<path class="st9" d="M893.6,159.9c-0.8-15.2-13.4-27.3-28.9-27.3s-28,12.1-28.9,27.3l0,0v8.3l0,0c0.7,15.3,13.4,27.5,28.9,27.5   s28.2-12.2,28.9-27.5l0,0V159.9L893.6,159.9z" id="path5314" />
	</g>
	<g id="g5316">
		<circle class="st10" cx="853.7" cy="166.1" r="2" id="circle5318" />
	</g>
	<g id="g5320">
		<circle class="st10" cx="875.8" cy="166.1" r="2" id="circle5322" />
	</g>
	<g id="g5324">
		<path class="st6" d="M864.9,130.2c0,0-25.6,0.5-25.6,31.6h25.2h0.5h25.2C890.2,129.3,864.9,130.2,864.9,130.2z" id="path5326" />
	</g>
	<g id="g5328">
		<path class="st6" d="M848,137.6c0,0-15.2,14.7-9.8,55.4C838.2,193,824.3,151,848,137.6z" id="path5330" />
	</g>
	<g id="g5332">
		<ellipse class="st11" cx="860.2" cy="210.5" rx="6" ry="7.1" id="ellipse5334" />
	</g>
	<g id="g5336">
		<ellipse class="st11" cx="869.3" cy="210.5" rx="6" ry="7.1" id="ellipse5338" />
	</g>
	<g id="g5340">
		<path class="st6" d="M881.5,137.6c0,0,15.2,14.7,9.8,55.4C891.3,193,905.2,151,881.5,137.6z" id="path5342" />
	</g>
	<g id="g5344">
		<g id="g5346">
			<path class="st6" d="M884.7,282.3h-20v48.9h31.1C895.8,331.2,900.4,305.4,884.7,282.3z" id="path5348" />
		</g>
		<g id="g5350">
			<path class="st1" d="M844.8,282.3c0,0-15.5,21.2-10.9,48.9h30.9v-48.9H844.8z" id="path5352" />
		</g>
	</g>
	<g id="g5354">
		<circle class="st9" cx="864.8" cy="206.5" r="8.4" id="circle5356" />
	</g>
	<g id="g5358">
		<polygon class="st8" points="910.4,243.6 910.4,303.2 895,303.2 895,238.1  " id="polygon5360" />
	</g>
	<g id="g5362">
		<path class="st7" d="M844.8,282.3c0,0-12.2,15.4-11.3,30.9h31.3v-31.8L844.8,282.3z" id="path5364" />
	</g>
	<g id="g5366">
		<path class="st1" d="M884.7,282.3c0,0,12.2,15.4,11.3,30.9h-31.3v-31.8L884.7,282.3z" id="path5368" />
	</g>
	<g id="g5370">
		<g id="g5372">
			<circle class="st11" cx="841" cy="224.3" r="1.3" id="circle5374" />
		</g>
		<g id="g5376">
			<circle class="st11" cx="856.8" cy="224.3" r="1.3" id="circle5378" />
		</g>
		<g id="g5380">
			<circle class="st11" cx="872.7" cy="224.3" r="1.3" id="circle5382" />
		</g>
		<g id="g5384">
			<circle class="st11" cx="888.5" cy="224.3" r="1.3" id="circle5386" />
		</g>
	</g>
	<g id="g5388">
		<g id="g5390">
			<circle class="st11" cx="848.9" cy="236.1" r="1.3" id="circle5392" />
		</g>
		<g id="g5394">
			<circle class="st11" cx="864.8" cy="236.1" r="1.3" id="circle5396" />
		</g>
		<g id="g5398">
			<circle class="st11" cx="880.6" cy="236.1" r="1.3" id="circle5400" />
		</g>
	</g>
	<g id="g5402">
		<g id="g5404">
			<circle class="st11" cx="841" cy="247.9" r="1.3" id="circle5406" />
		</g>
		<g id="g5408">
			<circle class="st11" cx="856.8" cy="247.9" r="1.3" id="circle5410" />
		</g>
		<g id="g5412">
			<circle class="st11" cx="872.7" cy="247.9" r="1.3" id="circle5414" />
		</g>
		<g id="g5416">
			<circle class="st11" cx="888.5" cy="247.9" r="1.3" id="circle5418" />
		</g>
	</g>
	<g id="g5420">
		<g id="g5422">
			<circle class="st11" cx="841" cy="294.3" r="1.3" id="circle5424" />
		</g>
		<g id="g5426">
			<circle class="st11" cx="856.8" cy="294.3" r="1.3" id="circle5428" />
		</g>
		<g id="g5430">
			<circle class="st11" cx="872.7" cy="294.3" r="1.3" id="circle5432" />
		</g>
		<g id="g5434">
			<circle class="st11" cx="888.5" cy="294.3" r="1.3" id="circle5436" />
		</g>
	</g>
	<g id="g5438">
		<g id="g5440">
			<circle class="st11" cx="856.8" cy="270.7" r="1.3" id="circle5442" />
		</g>
		<g id="g5444">
			<circle class="st11" cx="872.7" cy="270.7" r="1.3" id="circle5446" />
		</g>
	</g>
	<g id="g5448">
		<g id="g5450">
			<circle class="st11" cx="848.9" cy="259.7" r="1.3" id="circle5452" />
		</g>
		<g id="g5454">
			<circle class="st11" cx="864.8" cy="259.7" r="1.3" id="circle5456" />
		</g>
		<g id="g5458">
			<circle class="st11" cx="880.6" cy="259.7" r="1.3" id="circle5460" />
		</g>
	</g>
	<g id="g5462">
		<g id="g5464">
			<circle class="st11" cx="848.9" cy="305.5" r="1.3" id="circle5466" />
		</g>
		<g id="g5468">
			<circle class="st11" cx="864.8" cy="305.5" r="1.3" id="circle5470" />
		</g>
		<g id="g5472">
			<circle class="st11" cx="880.6" cy="305.5" r="1.3" id="circle5474" />
		</g>
	</g>
	<g id="g5476">
		<g id="g5478">
			<circle class="st11" cx="848.9" cy="281.7" r="1.3" id="circle5480" />
		</g>
		<g id="g5482">
			<circle class="st11" cx="864.8" cy="281.7" r="1.3" id="circle5484" />
		</g>
		<g id="g5486">
			<circle class="st11" cx="880.6" cy="281.7" r="1.3" id="circle5488" />
		</g>
	</g>
	<g id="g5490">
		<circle class="st6" cx="863.5" cy="130" r="17.6" id="circle5492" />
	</g>
	<g id="g5494">
		<path class="st1" d="M870.4,452.1h13.9c0,0,5.3,0.3,6.6-3.2c0,0-3.2-2.1-7.2-2.1h-13.4v5.3L870.4,452.1L870.4,452.1z" id="path5496" />
	</g>
	<g id="g5498">
		<path class="st1" d="M859.1,452.1h-13.9c0,0-5.3,0.3-6.6-3.2c0,0,3.2-2.1,7.2-2.1h13.4v5.3L859.1,452.1L859.1,452.1z" id="path5500" />
	</g>
	<path id="mouth" class="st11" d="M858.8,187.1c-0.5,0-0.9-0.3-1-0.8c-0.1-0.5,0.3-1.1,0.8-1.2l12.2-2.3c0.5-0.1,1.1,0.3,1.2,0.8  c0.1,0.5-0.3,1.1-0.8,1.2l-12.2,2.3C858.9,187.1,858.9,187.1,858.8,187.1z" />
	<g id="arm">
		<g id="g5504">
			<g id="g5506">
				<g class="st12" id="g5508">

					<ellipse transform="matrix(0.9901 -0.1406 0.1406 0.9901 7px 104px)" class="st13" cx="853.7" cy="166.7" rx="11.5" ry="11.5" id="ellipse5510" />
				</g>
				<g id="g5512">
					<path class="st14" d="M853.7,180.3c-6.6,0-12.5-4.9-13.4-11.7l0,0c-1.1-7.4,4.1-14.3,11.5-15.3c3.6-0.5,7.2,0.4,10,2.6      s4.8,5.3,5.3,8.9c1.1,7.4-4.1,14.3-11.5,15.3C854.9,180.3,854.3,180.3,853.7,180.3z M844.3,168.1c0.7,5.2,5.6,8.8,10.8,8.1      s8.8-5.6,8.1-10.8c-0.4-2.5-1.7-4.7-3.7-6.3c-2-1.5-4.5-2.2-7.1-1.8C847.2,158.1,843.5,162.9,844.3,168.1L844.3,168.1z" id="path5514" />
				</g>
			</g>
			<g id="g5516">
				<path class="st14" d="M846.7,197.9c-0.2,0-0.3,0-0.5-0.1c-1.1-0.3-1.8-1.3-1.5-2.4l4-17c0.3-1.1,1.3-1.8,2.4-1.5     c1.1,0.3,1.8,1.3,1.5,2.4l-4,17C848.5,197.2,847.7,197.9,846.7,197.9z" id="path5518" />
			</g>
		</g>
		<g id="g5520">
			<path class="st9" d="M835.8,240.2l14.3-38.5c2.7-8-1.7-16.7-9.7-19.4l-19,58.2L835.8,240.2z" id="path5522" />
		</g>
		<g id="g5524">
			<g id="g5526">
				<path class="st7" d="M817.1,259.1c-1.4-2-1.8-4.5-1.1-6.9l20-56.5l14.2,5.7l-20.8,56.9L817.1,259.1z" id="path5528" />
			</g>
		</g>
	</g>
	<path class="st7" d="M821.7,233.9c0.8-1.7,12.5,13.7,13.8,14.7c1.4,1.2-4.1,16.5-11.8,16.1c-6.6-0.3-8-6.9-8-10.5  C815.7,250.8,818.6,240.4,821.7,233.9z" id="path5530" />
	<g id="g5532">
		<rect x="526.3" y="279.9" class="st3" width="586" height="180" id="rect5534" />
		<rect x="545.3" y="298.9" class="st4" width="548" height="142" id="rect5536" />
		<rect x="521" y="278" class="st15" width="596.3" height="12.8" id="rect5538" />
		<g id="g5540">
			<rect x="558.5" y="314.9" class="st1" width="111.4" height="111.4" id="rect5542" />
			<rect x="695.1" y="314.9" class="st1" width="111.4" height="111.4" id="rect5544" />
			<rect x="831.7" y="314.9" class="st1" width="111.4" height="111.4" id="rect5546" />
			<rect x="968.4" y="314.9" class="st1" width="111.4" height="111.4" id="rect5548" />
		</g>
	</g>
	<g id="g5550">
		<g id="g5552">
			<path class="st16" d="M773.3,267.1h-26.1c-0.2,0-0.4-0.2-0.4-0.4c0-0.2,0.2-0.4,0.4-0.4h26.1c0.2,0,0.4,0.2,0.4,0.4    S773.5,267.1,773.3,267.1" id="path5554" />
			<path class="st16" d="M773.3,278.7h-26.1c-0.2,0-0.4-0.2-0.4-0.4c0-0.2,0.2-0.4,0.4-0.4h26.1c0.2,0,0.4,0.2,0.4,0.4    S773.5,278.7,773.3,278.7" id="path5556" />
			<path class="st0" d="M772.7,277.5h-25.5c-0.2,0-0.4-0.2-0.4-0.4c0-0.2,0.2-0.4,0.4-0.4h25.5c0.2,0,0.4,0.2,0.4,0.4    C773.1,277.3,772.9,277.5,772.7,277.5" id="path5558" />
			<path class="st0" d="M771.8,276.2h-25.5c-0.2,0-0.4-0.2-0.4-0.4c0-0.2,0.2-0.4,0.4-0.4h25.5c0.2,0,0.4,0.2,0.4,0.4    S772,276.2,771.8,276.2" id="path5560" />
			<path class="st0" d="M771.8,274.8h-25.5c-0.2,0-0.4-0.2-0.4-0.4c0-0.2,0.2-0.4,0.4-0.4h25.5c0.2,0,0.4,0.2,0.4,0.4    C772.2,274.6,772,274.8,771.8,274.8" id="path5562" />
			<path class="st0" d="M771.4,273.5h-25.5c-0.2,0-0.4-0.2-0.4-0.4c0-0.2,0.2-0.4,0.4-0.4h25.5c0.2,0,0.4,0.2,0.4,0.4    C771.8,273.3,771.6,273.5,771.4,273.5" id="path5564" />
			<path class="st0" d="M771.4,272.2h-25.5c-0.2,0-0.4-0.2-0.4-0.4c0-0.2,0.2-0.4,0.4-0.4h25.5c0.2,0,0.4,0.2,0.4,0.4    C771.8,272,771.6,272.2,771.4,272.2" id="path5566" />
			<path class="st0" d="M771.7,270.8h-25.5c-0.2,0-0.4-0.2-0.4-0.4c0-0.2,0.2-0.4,0.4-0.4h25.5c0.2,0,0.4,0.2,0.4,0.4    C772.2,270.7,772,270.8,771.7,270.8" id="path5568" />
			<path class="st0" d="M771.7,269.5h-25.5c-0.2,0-0.4-0.2-0.4-0.4c0-0.2,0.2-0.4,0.4-0.4h25.5c0.2,0,0.4,0.2,0.4,0.4    C772.2,269.3,772,269.5,771.7,269.5" id="path5570" />
			<path class="st0" d="M772.7,268.2h-25.5c-0.2,0-0.4-0.2-0.4-0.4c0-0.2,0.2-0.4,0.4-0.4h25.5c0.2,0,0.4,0.2,0.4,0.4    C773.1,268,772.9,268.2,772.7,268.2" id="path5572" />
			<path class="st16" d="M748.3,266.3h-56.5l0,0c-1.4,1.7-2.2,3.8-2.2,6.2c0,2.4,0.8,4.5,2.2,6.2l0,0h56.5v-0.1    c-1.4-1.7-2.2-3.8-2.2-6.1C746.1,270.1,746.9,268,748.3,266.3L748.3,266.3z" id="path5574" />
		</g>
		<g id="g5576">
			<g id="g5578">
				<g id="g5580">
					<defs id="defs5582">
						<path id="SVGID_1_" d="M691.8,266.3L691.8,266.3c-1.4,1.7-2.2,3.8-2.2,6.2c0,2.4,0.8,4.5,2.2,6.2l0,0h56.5v-0.1       c-1.4-1.7-2.2-3.8-2.2-6.1c0-2.3,0.8-4.5,2.2-6.1v-0.1H691.8z" />
					</defs>
					<clipPath id="SVGID_2_">
						<use xlink:href="#SVGID_1_" style="overflow:visible;" id="use5586" />
					</clipPath>
					<path class="st17" d="M697.2,280.4l-0.9-1.1c-0.3-0.3-2.5-2.9-2.5-6.8s2.2-6.5,2.5-6.8l0.8-1l1.5,1.2l-0.9,1.1c0,0-2,2.2-2,5.5      s2,5.5,2,5.5l0,0l1,1.2L697.2,280.4z" id="path5588" clip-path="url(#SVGID_2_)" />
				</g>
			</g>
			<g id="g5590">
				<g id="g5592">
					<defs id="defs5594">
						<path id="SVGID_3_" d="M691.8,266.3L691.8,266.3c-1.4,1.7-2.2,3.8-2.2,6.2c0,2.4,0.8,4.5,2.2,6.2l0,0h56.5v-0.1       c-1.4-1.7-2.2-3.8-2.2-6.1c0-2.3,0.8-4.5,2.2-6.1v-0.1H691.8z" />
					</defs>
					<clipPath id="SVGID_4_">
						<use xlink:href="#SVGID_3_" style="overflow:visible;" id="use5598" />
					</clipPath>
					<path class="st18" d="M702,280.4l-0.9-1.1c-0.3-0.3-2.5-2.9-2.5-6.8s2.2-6.5,2.5-6.8l0.8-1l1.5,1.2l-0.9,1.1c0,0-2,2.2-2,5.5      s2,5.5,2,5.5l0,0l1,1.2L702,280.4z" id="path5600" clip-path="url(#SVGID_4_)" />
				</g>
			</g>
		</g>
		<g id="g5602">
			<path class="st19" d="M693,243h33.7c0.2,0,0.4-0.2,0.4-0.4s-0.2-0.4-0.4-0.4H693c-0.2,0-0.4,0.2-0.4,0.4S692.8,243,693,243" id="path5604" />
			<path class="st19" d="M693,257.5h33.7c0.2,0,0.4-0.2,0.4-0.4c0-0.2-0.2-0.4-0.4-0.4H693c-0.2,0-0.4,0.2-0.4,0.4    S692.8,257.5,693,257.5" id="path5606" />
			<path class="st0" d="M693.6,256.3h33.1c0.2,0,0.4-0.2,0.4-0.4c0-0.2-0.2-0.4-0.4-0.4h-33.1c-0.2,0-0.4,0.2-0.4,0.4    C693.2,256.2,693.4,256.3,693.6,256.3" id="path5608" />
			<path class="st0" d="M694.5,255h33.1c0.2,0,0.4-0.2,0.4-0.4s-0.2-0.4-0.4-0.4h-33.1c-0.2,0-0.4,0.2-0.4,0.4S694.3,255,694.5,255" id="path5610" />
			<path class="st0" d="M694.9,253.7H728c0.2,0,0.4-0.2,0.4-0.4s-0.2-0.4-0.4-0.4h-33.1c-0.2,0-0.4,0.2-0.4,0.4    S694.7,253.7,694.9,253.7" id="path5612" />
			<path class="st0" d="M694.9,252.4H728c0.2,0,0.4-0.2,0.4-0.4s-0.2-0.4-0.4-0.4h-33.1c-0.2,0-0.4,0.2-0.4,0.4    S694.7,252.4,694.9,252.4" id="path5614" />
			<path class="st0" d="M695.2,251h33.1c0.2,0,0.4-0.2,0.4-0.4s-0.2-0.4-0.4-0.4h-33.1c-0.2,0-0.4,0.2-0.4,0.4S695,251,695.2,251" id="path5616" />
			<path class="st0" d="M695.2,249.7h33.1c0.2,0,0.4-0.2,0.4-0.4s-0.2-0.4-0.4-0.4h-33.1c-0.2,0-0.4,0.2-0.4,0.4    S695,249.7,695.2,249.7" id="path5618" />
			<path class="st0" d="M694.9,248.4H728c0.2,0,0.4-0.2,0.4-0.4s-0.2-0.4-0.4-0.4h-33.1c-0.2,0-0.4,0.2-0.4,0.4    S694.7,248.4,694.9,248.4" id="path5620" />
			<path class="st0" d="M694.9,247H728c0.2,0,0.4-0.2,0.4-0.4s-0.2-0.4-0.4-0.4h-33.1c-0.2,0-0.4,0.2-0.4,0.4S694.7,247,694.9,247" id="path5622" />
			<path class="st0" d="M694.5,245.7h33.1c0.2,0,0.4-0.2,0.4-0.4s-0.2-0.4-0.4-0.4h-33.1c-0.2,0-0.4,0.2-0.4,0.4    S694.3,245.7,694.5,245.7" id="path5624" />
			<path class="st0" d="M693.6,244.4h33.1c0.2,0,0.4-0.2,0.4-0.4s-0.2-0.4-0.4-0.4h-33.1c-0.2,0-0.4,0.2-0.4,0.4    C693.2,244.2,693.4,244.4,693.6,244.4" id="path5626" />
			<path class="st19" d="M722.5,242.2h46.3l0,0c1.1,2.1,1.8,4.7,1.8,7.7c0,2.9-0.7,5.6-1.8,7.7l0,0h-46.3v-0.1    c1.1-2.1,1.8-4.7,1.8-7.6C724.3,247,723.6,244.3,722.5,242.2L722.5,242.2z" id="path5628" />
			<path class="st20" d="M765.6,258.4h-38.3c-0.2,0-0.3-0.2-0.3-0.4c0-0.2,0.1-0.4,0.3-0.4h38.3c0.2,0,0.3,0.2,0.3,0.4    C766,258.2,765.8,258.4,765.6,258.4" id="path5630" />
			<path class="st20" d="M765.6,266.2h-38.3c-0.2,0-0.3-0.2-0.3-0.4c0-0.2,0.1-0.4,0.3-0.4h38.3c0.2,0,0.3,0.2,0.3,0.4    C766,266,765.8,266.2,765.6,266.2" id="path5632" />
			<path class="st0" d="M765.2,265.1h-37.8c-0.2,0-0.3-0.2-0.3-0.4c0-0.2,0.1-0.4,0.3-0.4h37.8c0.2,0,0.3,0.2,0.3,0.4    S765.4,265.1,765.2,265.1" id="path5634" />
			<path class="st0" d="M764.5,263.7h-37.8c-0.2,0-0.3-0.2-0.3-0.4c0-0.2,0.1-0.4,0.3-0.4h37.8c0.2,0,0.3,0.2,0.3,0.4    C764.8,263.6,764.7,263.7,764.5,263.7" id="path5636" />
			<path class="st0" d="M764.2,262.4h-37.8c-0.2,0-0.3-0.2-0.3-0.4c0-0.2,0.1-0.4,0.3-0.4h37.8c0.2,0,0.3,0.2,0.3,0.4    C764.5,262.2,764.4,262.4,764.2,262.4" id="path5638" />
			<path class="st0" d="M764.5,261.1h-37.8c-0.2,0-0.3-0.2-0.3-0.4s0.1-0.4,0.3-0.4h37.8c0.2,0,0.3,0.2,0.3,0.4    S764.7,261.1,764.5,261.1" id="path5640" />
			<path class="st0" d="M765.2,259.7h-37.8c-0.2,0-0.3-0.2-0.3-0.4c0-0.2,0.1-0.4,0.3-0.4h37.8c0.2,0,0.3,0.2,0.3,0.4    C765.5,259.6,765.4,259.7,765.2,259.7" id="path5642" />
			<path class="st20" d="M729.7,257.5h-33.3l0,0c-0.8,1.2-1.3,2.7-1.3,4.3c0,1.7,0.5,3.2,1.3,4.3l0,0h33.3l0,0    c-0.8-1.2-1.3-2.7-1.3-4.3C728.4,260.3,728.9,258.8,729.7,257.5L729.7,257.5z" id="path5644" />
			<rect x="697.5" y="260.8" class="st21" width="12.2" height="2.3" id="rect5646" />
			<path class="st22" d="M763.2,226H725c-0.2,0-0.3-0.2-0.3-0.4s0.1-0.4,0.3-0.4h38.3c0.2,0,0.3,0.2,0.3,0.4    C763.6,225.9,763.4,226,763.2,226" id="path5648" />
			<path class="st22" d="M763.2,231.1H725c-0.2,0-0.3-0.2-0.3-0.4s0.1-0.4,0.3-0.4h38.3c0.2,0,0.3,0.2,0.3,0.4    C763.6,231,763.4,231.1,763.2,231.1" id="path5650" />
			<path class="st0" d="M762.8,230H725c-0.2,0-0.3-0.2-0.3-0.4s0.1-0.4,0.3-0.4h37.8c0.2,0,0.3,0.2,0.3,0.4S763,230,762.8,230" id="path5652" />
			<path class="st0" d="M762.1,228.6h-37.8c-0.2,0-0.3-0.2-0.3-0.4s0.1-0.4,0.3-0.4h37.8c0.2,0,0.3,0.2,0.3,0.4    S762.3,228.6,762.1,228.6" id="path5654" />
			<path class="st0" d="M762.8,227.3H725c-0.2,0-0.3-0.2-0.3-0.4s0.1-0.4,0.3-0.4h37.8c0.2,0,0.3,0.2,0.3,0.4S763,227.3,762.8,227.3" id="path5656" />
			<path class="st22" d="M727.3,225.2h-19.6l0,0c-0.5,0.8-0.8,1.8-0.8,3c0,1.1,0.3,2.2,0.8,3l0,0h19.6l0,0c-0.5-0.8-0.8-1.8-0.8-2.9    C726.5,227.1,726.8,226,727.3,225.2L727.3,225.2z" id="path5658" />
			<path class="st23" d="M768.5,231.9h-43.8c-0.2,0-0.3-0.2-0.3-0.4s0.1-0.4,0.3-0.4h43.8c0.2,0,0.3,0.2,0.3,0.4    C768.8,231.8,768.6,231.9,768.5,231.9" id="path5660" />
			<path class="st23" d="M768.5,242.2h-43.8c-0.2,0-0.3-0.2-0.3-0.4s0.1-0.4,0.3-0.4h43.8c0.2,0,0.3,0.2,0.3,0.4    S768.6,242.2,768.5,242.2" id="path5662" />
			<path class="st0" d="M768,241h-43.4c-0.2,0-0.3-0.2-0.3-0.4s0.1-0.4,0.3-0.4H768c0.2,0,0.3,0.2,0.3,0.4    C768.3,240.9,768.2,241,768,241" id="path5664" />
			<path class="st0" d="M767.3,239.7h-43.4c-0.2,0-0.3-0.2-0.3-0.4s0.1-0.4,0.3-0.4h43.4c0.2,0,0.3,0.2,0.3,0.4    S767.5,239.7,767.3,239.7" id="path5666" />
			<path class="st0" d="M767,238.4h-43.4c-0.2,0-0.3-0.2-0.3-0.4s0.1-0.4,0.3-0.4H767c0.2,0,0.3,0.2,0.3,0.4    C767.4,238.2,767.2,238.4,767,238.4" id="path5668" />
			<path class="st0" d="M766.8,237h-43.4c-0.2,0-0.3-0.2-0.3-0.4s0.1-0.4,0.3-0.4h43.4c0.2,0,0.3,0.2,0.3,0.4    C767.1,236.9,766.9,237,766.8,237" id="path5670" />
			<path class="st0" d="M767,235.7h-43.4c-0.2,0-0.3-0.2-0.3-0.4s0.1-0.4,0.3-0.4H767c0.2,0,0.3,0.2,0.3,0.4    C767.4,235.5,767.2,235.7,767,235.7" id="path5672" />
			<path class="st0" d="M767.3,234.4h-43.4c-0.2,0-0.3-0.2-0.3-0.4s0.1-0.4,0.3-0.4h43.4c0.2,0,0.3,0.2,0.3,0.4    S767.5,234.4,767.3,234.4" id="path5674" />
			<path class="st0" d="M768,233.1h-43.4c-0.2,0-0.3-0.2-0.3-0.4s0.1-0.4,0.3-0.4H768c0.2,0,0.3,0.2,0.3,0.4S768.2,233.1,768,233.1" id="path5676" />
		</g>
		<g id="g5678">
			<g id="g5680">
				<g id="g5682">
					<defs id="defs5684">
						<path id="SVGID_5_" d="M707.4,231.1L707.4,231.1c-0.5,1.5-0.7,3.4-0.7,5.6c0,2.1,0.3,4,0.7,5.5l0,0h18.4v-0.1       c-0.4-1.5-0.7-3.4-0.7-5.5s0.3-4,0.7-5.5V231h-18.4V231.1z" />
					</defs>
					<clipPath id="SVGID_6_">
						<use xlink:href="#SVGID_5_" style="overflow:visible;" id="use5688" />
					</clipPath>
					<path class="st24" d="M725.9,231.1h-18.4l0,0c-0.5,1.5-0.7,3.4-0.7,5.5s0.3,4,0.7,5.5l0,0h18.4V242c-0.4-1.5-0.7-3.4-0.7-5.5      C725.1,234.6,725.4,232.7,725.9,231.1L725.9,231.1z" id="path5690" clip-path="url(#SVGID_6_)" />
				</g>
			</g>
			<g id="g5692">
				<g id="g5694">
					<defs id="defs5696">
						<path id="SVGID_7_" d="M707.4,231.1L707.4,231.1c-0.5,1.5-0.7,3.4-0.7,5.6c0,2.1,0.3,4,0.7,5.5l0,0h18.4v-0.1       c-0.4-1.5-0.7-3.4-0.7-5.5s0.3-4,0.7-5.5V231h-18.4V231.1z" />
					</defs>
					<clipPath id="SVGID_8_">
						<use xlink:href="#SVGID_7_" style="overflow:visible;" id="use5700" />
					</clipPath>
					<path class="st25" d="M717,242.5c-0.1,0-0.2-0.1-0.3-0.2c-1.7-6-0.1-11.1,0-11.3c0-0.1,0.2-0.2,0.4-0.2c0.1,0,0.2,0.2,0.2,0.4      c0,0.1-1.7,5.2,0,10.9C717.4,242.3,717.3,242.4,717,242.5C717.1,242.5,717.1,242.5,717,242.5" id="path5702" clip-path="url(#SVGID_8_)" />
				</g>
			</g>
			<g id="g5704">
				<g id="g5706">
					<defs id="defs5708">
						<path id="SVGID_9_" d="M707.4,231.1L707.4,231.1c-0.5,1.5-0.7,3.4-0.7,5.6c0,2.1,0.3,4,0.7,5.5l0,0h18.4v-0.1       c-0.4-1.5-0.7-3.4-0.7-5.5s0.3-4,0.7-5.5V231h-18.4V231.1z" />
					</defs>
					<clipPath id="SVGID_10_">
						<use xlink:href="#SVGID_9_" style="overflow:visible;" id="use5712" />
					</clipPath>
					<path class="st26" d="M720.9,242.5c-0.1,0-0.2-0.1-0.3-0.2c-1.7-6-0.1-11.1,0-11.3c0-0.1,0.2-0.2,0.4-0.2c0.1,0,0.2,0.2,0.2,0.4      c0,0.1-1.7,5.2,0,10.9C721.2,242.3,721.1,242.4,720.9,242.5L720.9,242.5" id="path5714" clip-path="url(#SVGID_10_)" />
				</g>
			</g>
		</g>
	</g>
</svg>
